<svg version="1.1" xmlns="http://www.w3.org/2000/svg" xmlns:xlink="http://www.w3.org/1999/xlink" viewBox="0 0 75 75">
	<polygon fill="#5D5D5D" points="43.5,15 25.5,15 19.5,42 31.5,42 25.5,60 55.5,24 37.5,24"/>
</svg>
