<svg version="1.1" xmlns="http://www.w3.org/2000/svg" viewBox="0 0 75 75">
	<rect class="middle" width="75" height="75"/>
	<g class="deep">
		<rect x="32.6" y="23" width="10" height="5"/>
		<path d="M43,16v-2H33v2h-8v45h25V16H43z M45,56H30V21h15V56z"/>
		<rect x="32.6" y="31.3" width="10" height="5"/>
		<rect x="32.6" y="39.5" width="10" height="5"/>
		<rect x="32.6" y="47.8" width="10" height="5"/>
	</g>
</svg>