<svg version="1.1" xmlns="http://www.w3.org/2000/svg" viewBox="0 0 75 75">
	<rect class="middle" width="75" height="75"/>
	<path class="deep" d="M37.5,42.4c-2.7,0-4.9-2.2-4.9-4.9s2.2-4.9,4.9-4.9c2.7,0,4.9,2.2,4.9,4.9S40.2,42.4,37.5,42.4z M37.1,60.1 c0,0.6-0.5,1-1.1,1c0,0,0,0-0.1,0c-5.8-0.4-11.2-2.8-15.3-6.9c-2.9-2.9-5-6.5-6.1-10.3l-0.1,0.3c-0.2,0.6-0.7,0.9-1.3,0.8 c-0.6-0.2-0.9-0.7-0.8-1.3l1.3-5c0-0.1,0-0.1,0.1-0.2c0.1-0.1,0.2-0.3,0.3-0.4c0.1-0.1,0.3-0.2,0.4-0.2c0.1,0,0.2,0,0.4,0 c0.1,0,0.2,0,0.4,0.1c0.1,0.1,0.3,0.2,0.4,0.3c0.1,0.1,0.2,0.3,0.2,0.4c0,0.1,0,0.1,0,0.2c0.3,5.2,2.6,10.1,6.3,13.9 c3.7,3.7,8.6,5.9,13.9,6.3C36.7,59,37.2,59.5,37.1,60.1z M62.5,31.3l-1.3,5c-0.1,0.2-0.2,0.4-0.3,0.5c-0.2,0.2-0.4,0.3-0.7,0.3 c0,0,0,0-0.1,0c-0.6,0-1-0.4-1.1-1c-0.3-5.2-2.6-10.2-6.3-13.9c-3.7-3.7-8.6-5.9-13.9-6.3c-0.6,0-1-0.5-1-1.1c0-0.6,0.5-1,1.1-1 c5.8,0.4,11.2,2.8,15.3,6.9c2.9,2.9,5,6.5,6.1,10.4l0.1-0.4c0.2-0.6,0.7-0.9,1.3-0.8C62.3,30.1,62.6,30.7,62.5,31.3z M53.2,28.4 c-1.1-1.9-2.8-3.7-4.3-3L46,26.7c-1.1-0.9-2.3-1.5-3.5-2l-0.3-3.1c-0.1-1.7-2.6-2.3-4.7-2.3c-2.2,0-4.7,0.6-4.7,2.3l-0.3,3.1 c-1.3,0.5-2.5,1.2-3.5,2l-2.8-1.3c-1.5-0.8-3.3,1.1-4.3,3c-1.1,1.9-1.8,4.3-0.4,5.2l2.5,1.8c-0.1,0.7-0.2,1.4-0.2,2.1 c0,0.7,0.1,1.4,0.1,2l-2.5,1.8c-1.4,0.9-0.7,3.4,0.4,5.2c1.1,1.9,2.8,3.7,4.3,3l2.8-1.2c1.1,0.9,2.3,1.6,3.6,2.1l0.3,3 c0.1,1.7,2.6,2.3,4.7,2.3c2.1,0,4.7-0.6,4.7-2.3l0.3-3c1.3-0.5,2.5-1.2,3.6-2.1l2.8,1.2c0.4,0.2,1.3,0.4,2.5-0.6 c0.6-0.6,1.3-1.4,1.8-2.3c1.1-1.9,1.8-4.3,0.4-5.2l-2.5-1.8c0.1-0.7,0.1-1.4,0.1-2c0-0.7-0.1-1.4-0.2-2.1l2.5-1.8 C55,32.8,54.3,30.3,53.2,28.4z"/>
</svg>