<svg version="1.1" xmlns="http://www.w3.org/2000/svg" viewBox="0 0 75 75">
	<rect class="middle" width="75" height="75"/>
	<path class="deep" d="M27.6,23.9h19.8c1.6,0,2.9,1.3,2.9,2.9c0,1.6-1.3,2.9-2.9,2.9h-0.9c0,0.3,0.1,0.5,0.1,0.8v9.2 c0,3-2.4,5.4-5.4,5.4H40v2.3c0,1-0.6,1.5-1.4,1.6v13.4h-3.2V49c-0.7-0.2-1.1-0.6-1.1-1.6v-2.3h-0.6c-3,0-5.4-2.4-5.4-5.4v-9.2 c0-0.3,0-0.5,0.1-0.8h-0.9c-1.6,0-2.9-1.3-2.9-2.9C24.6,25.2,26,23.9,27.6,23.9z M32,12.5c-1.2,0-2.1,0.9-2.1,2.1V23h4.2v-8.4 C34.1,13.4,33.2,12.5,32,12.5z M40.8,14.6V23H45v-8.4c0-1.2-0.9-2.1-2.1-2.1C41.7,12.5,40.8,13.4,40.8,14.6z"/>
</svg>