<svg version="1.1" xmlns="http://www.w3.org/2000/svg" viewBox="0 0 75 75">
	<rect class="middle" width="75" height="75"/>
	<g class="deep">
		<path d="M27.5,19.7c-0.8-0.7-2-1.2-3.2-1.2c-2.7,0-4.8,2.2-4.8,4.8c0,0.7,0.2,1.4,0.4,2 C22.1,23,24.6,21.1,27.5,19.7z"/>
		<path d="M41.2,19.5v-0.9v-0.9v-2.3H43c0.6,0,1.1-0.7,1.1-1.5c0-0.8-0.5-1.5-1.1-1.5H32c-0.6,0-1.1,0.7-1.1,1.5 c0,0.8,0.5,1.5,1.1,1.5h1.9v2.3v0.9v0.9c-1.8,0.3-3.6,0.8-5.2,1.6c-3,1.3-5.6,3.3-7.6,5.7c-3.2,3.8-5.1,8.7-5.1,14 c0,12,9.7,21.6,21.6,21.6s21.6-9.7,21.6-21.6C59.1,30.2,51.4,21.3,41.2,19.5z M37.5,58.8c-9.9,0-18-8.1-18-18c0-4.9,2-9.4,5.2-12.6 c1.2-1.2,2.6-2.3,4.1-3.1c2.6-1.4,5.5-2.2,8.6-2.2c9.9,0,18,8.1,18,18C55.5,50.8,47.4,58.8,37.5,58.8z"/>
		<path d="M48.4,30c-0.7-0.7-1.5-1.3-2.3-1.9c-0.4-0.3-0.8-0.5-1.3-0.8c-0.5-0.3-1.1-0.6-1.7-0.8 c-1.5-0.6-3-0.9-4.6-1c-0.3,0-0.7,0-1,0c-2.7,0-5.1,0.7-7.3,1.9c-0.4,0.2-0.9,0.5-1.3,0.8c-0.8,0.6-1.6,1.2-2.3,1.9 c-2.8,2.8-4.5,6.6-4.5,10.9c0,4.2,1.7,8.1,4.5,10.9c0.7,0.7,1.5,1.3,2.3,1.9c0.4,0.3,0.8,0.5,1.3,0.8c2.2,1.2,4.7,1.9,7.3,1.9 c0.3,0,0.7,0,1,0c1.6-0.1,3.2-0.5,4.6-1c0.6-0.2,1.1-0.5,1.7-0.8c0.4-0.2,0.9-0.5,1.3-0.8c0.8-0.6,1.6-1.2,2.3-1.9 c2.8-2.8,4.5-6.6,4.5-10.9C52.9,36.6,51.1,32.8,48.4,30z M25.9,44.6c-2-8,3.6-16,11.6-16v11.5L25.9,44.6z M32.4,47.2l-3.1,3.1 c-0.2,0.2-0.4,0.3-0.6,0.3c-0.2,0-0.4-0.1-0.6-0.3c-0.3-0.3-0.3-0.9,0-1.2l3.1-3.1c0.3-0.3,0.9-0.3,1.2,0 C32.7,46.3,32.7,46.9,32.4,47.2z M38.4,53.3c0,0.5-0.4,0.9-0.9,0.9c-0.5,0-0.9-0.4-0.9-0.9v-4.3c0-0.5,0.4-0.9,0.9-0.9 c0.5,0,0.9,0.4,0.9,0.9V53.3z M45.7,31.4c0.3-0.3,0.9-0.3,1.2,0s0.3,0.9,0,1.2l-3.1,3.1c-0.2,0.2-0.4,0.3-0.6,0.3 c-0.2,0-0.4-0.1-0.6-0.3c-0.3-0.3-0.3-0.9,0-1.2L45.7,31.4z M46.9,50.3c-0.2,0.2-0.4,0.3-0.6,0.3c-0.2,0-0.4-0.1-0.6-0.3l-3.1-3.1 c-0.3-0.3-0.3-0.9,0-1.2s0.9-0.3,1.2,0l3.1,3.1C47.2,49.4,47.2,49.9,46.9,50.3z M49.9,41.7h-4.3c-0.5,0-0.9-0.4-0.9-0.9 c0-0.5,0.4-0.9,0.9-0.9h4.3c0.5,0,0.9,0.4,0.9,0.9C50.8,41.3,50.4,41.7,49.9,41.7z"/>
	</g>
</svg>