<svg xmlns="http://www.w3.org/2000/svg" viewBox="0 0 100 100" version="1.1">
    <path class="deep" d="M 50 18 A 32 32 0 0 0 18 50 A 32 32 0 0 0 50 82 A 32 32 0 0 0 82 50 A 32 32 0 0 0 50 18 z M 50 23 A 27 27 0 0 1 77 50 A 27 27 0 0 1 50 77 A 27 27 0 0 1 23 50 A 27 27 0 0 1 50 23 z" />
    <circle class="deep" cx="50" cy="50" r="17.5"/>
</svg>