<svg version="1.1" xmlns="http://www.w3.org/2000/svg" viewBox="0 0 75 75">
	<rect class="middle" width="75" height="75"/>
	<g class="deep">
		<path d="M42.9,46.4V15.8c0-3-2.4-5.4-5.4-5.4c-3,0-5.4,2.4-5.4,5.4v30.6c-2.7,1.8-4.5,4.9-4.5,8.3 c0,5.5,4.5,10,10,10c5.5,0,10-4.5,10-10C47.5,51.2,45.7,48.1,42.9,46.4z"/>
		<g>
			<path d="M42.9,46.4V15.8c0-3-2.4-5.4-5.4-5.4c-3,0-5.4,2.4-5.4,5.4v30.6c-2.7,1.8-4.5,4.9-4.5,8.3 c0,5.5,4.5,10,10,10c5.5,0,10-4.5,10-10C47.5,51.2,45.7,48.1,42.9,46.4z M37.5,62.1c-4.1,0-7.4-3.3-7.4-7.4c0-3,1.8-5.7,4.5-6.8 V15.8c0-1.6,1.3-2.9,2.9-2.9c1.6,0,2.9,1.3,2.9,2.9v32.1c2.7,1.2,4.5,3.9,4.5,6.8C44.9,58.8,41.6,62.1,37.5,62.1z"/>
			<rect x="33.2" y="37" width="8.6" height="1"/>
			<rect x="33.2" y="30.9" width="8.6" height="1"/>
			<rect x="33.2" y="24.8" width="8.6" height="1"/>
			<rect x="33.2" y="18.8" width="8.6" height="1"/>
			<rect x="29" y="55.2" width="16.9" height="1"/>
			<rect x="30.3" y="49.2" width="14.3" height="1"/>
			<rect x="33.2" y="43.1" width="8.6" height="1"/>
		</g>
	</g>
</svg>