<svg xmlns="http://www.w3.org/2000/svg" viewBox="0 0 290 1500" version="1.1">
    <rect class="cold deep" width="300" height="300" x="0" y="1250"/>
    <rect class="hot regular" width="300" height="300" x="0" y="1250"/>
    <defs>
        <pattern patternUnits="userSpaceOnUse" width="50" height="90" id="colders" class="middle">
            <path d="m 24.99999,7.6621094e-4 -5.106,9.86949998906 -4.9905,-2.2195 -4.9035,7.3047998 7.5,11.28 7.5,11.265 4.875,-10.3201 2.919,2.9097 7.206,-15.135 -5.025,-4.05 -5.1705,1.8 L 24.99999,1.6621094e-4 M 24.35949,11.025166 l 1.236,3.2695 1.5495,4.0952 4.137,-1.425 2.8125,-0.9897 0.315,0.2548 -2.9415,6.18 -2.9355,-2.925 -2.727,5.775 -1.473,3.1202 -3.087,-4.65 -5.835,-8.76 1.122,-1.6799 1.53,0.6903 3.8775,1.725 1.9515,-3.765 0.468,-0.9147" />
            <path d="m 0,45.000366 0,12.7188 0.5957,1.5761 1.54883,4.0938 4.13672,-1.4239 2.8125,-0.9902 0.31641,0.2559 -2.94141,6.1797 -2.93555,-2.9258 -2.72851,5.7754 -0.80469,1.705 0,10.5352 4.875,-10.3203 2.91992,2.9101 L 15,59.955466 9.97461,55.904666 4.80469,57.705466 0,45.000366 Z"/>
            <path d="m 50,45.000366 -5.10547,9.8691 -4.99023,-2.2187 -4.9043,7.3047 7.5,11.2793 7.5,11.2656 0,-10.5352 -0.66797,1.4141 -3.08594,-4.6484 -5.83593,-8.7617 1.12304,-1.6797 1.5293,0.6914 3.87695,1.7246 1.95117,-3.7656 0.46876,-0.9141 0.64062,1.6934 0,-12.7188 z"/>
        </pattern>
		<pattern patternUnits="userSpaceOnUse" width="40" height="50" id="hotters" class="deep">
			<path d="m 20,34.6113 -3.12695,6.3848 -5.97461,-2.7813 1.69531,6.8672 -5.4668,1.836 2.14844,3.082 21.44922,0 2.14844,-3.082 -5.4668,-1.836 1.69727,-6.8672 -5.97657,2.7813 L 20,34.6113 Z"/>
			<path d="m 40,9.6035 -3.12891,6.3867 -5.97265,-2.7812 1.69531,6.8808 -5.4668,1.8379 L 40,40.3965 40,9.6035 Z"/>
			<path d="M 0,9.6035 0,40.3965 12.87305,21.9277 7.40625,20.0898 9.10352,13.209 3.13086,15.9902 0,9.6035 Z"/>
			<path d="M 9.27539,0 20,15.3867 30.72461,0 9.27539,0 Z"/>
		</pattern>
    </defs>
    <rect class="cold" style="fill:url(#colders)" width="290" height="850" x="0" y="700"/>
    <rect class="hot" style="fill:url(#hotters)" width="290" height="850" x="0" y="700"/>
    <path class="middle" d="m 0,42.147625 c 0.5784125,1026.613275 0.2887,513.306585 0,0 M 290,0 0,2.5 0,845 290,1132.5"/>
    <path class="black" d="m 0,855 0,-25 290,290 0,25 z"/>
</svg>